patch
{
include "materials/models/player/ct_swat/ct_swat_shared.vmt"
insert
{
$baseTexture "models/player/ct_swat/ct_swat_head_variantA"
$bumpMap "models/player/ct_swat/ct_swat_head_normal_variantA"
$nodecal 1
}
}
