VertexLitGeneric
{
$phongdisablehalflambert 1
$baseTexture "models/player/ct_swat/ct_swat_head_variantB"
$bumpMap "models/player/ct_swat/ct_swat_head_normal_variantB"
$phong 1
$phongBoost 25
$phongExponent 90
$phongTint "[1 1 1]"
$phongFresnelRanges "[0 .1 1]"
$rimlight 1
$rimlightexponent 50
$rimlightboost ".2"
$nodecal 1
}