"VertexlitGeneric"
{
	"$basetexture" "models/LoneWolfiesCars/shared/blackglass"
	"$bumpmap"    "models/LoneWolfiesCars/shared/skin_nm"
	
	"$halflambert" 1
	"$phong" "1" 
	"$phongboost" "1" 
	"$phongfresnelranges" "[4 1 4]"
   	 $blendtintbybasealpha "1"
  	  $envmap "env_cubemap"
  	  $envmaptint "[0.4 0.4 0.4]"
	"$surfaceprop" "Glass"
	"$color2" "[0 0 0]"
   	 "$rimlight" "1"
	"$rimlightexponent" "50"
	"$rimlightboost" "0.01"
	"$rimmask" "0"
	"$alpha" "0.1"
	"$envmapFresnel" "1"

    $envmap "env_cubemap"
    $envmaptint "[1 1 1]"

	
	!hdr?$envmaptint "[ 0.2 0.2 0.2 ]"
	hdr?$envmaptint "[ 0.1 0.1 0.1 ]"
 }