"VertexLitGeneric"
{
	"$basetexture" "models/humangrunt/sheriff/head_diff_002_c_whi"
	"$bumpmap" "models\humangrunt\sheriff\head_normal_002"
	"$phongexponenttexture" "models\humangrunt\sheriff\head_spec_002"
	"$surfaceprop" "flesh"
	"$model" 1
	"$nocull" 1

	"$phong" "1"
	"$phongexponent" "20"
	"$phongboost" "0.05"	
	"$phongfresnelranges"	"[.1 0.2 1]"
	"$halflambert" "1"


	"$rimlight" "1"										
	"$rimlightexponent" "20"							
	"$rimlightboost" "0.1"
	
}
