"VertexLitGeneric"
{
	"$basetexture" "models/humangrunt/sheriff/task_diff_001_a_uni"
	"$bumpmap" "models\humangrunt\sheriff\task_normal_001"
	"$phongexponenttexture" "models\humangrunt\sheriff\task_spec_001"
	"$surfaceprop" "flesh"
	"$model" 1
	"$nocull" 1

	"$phong" "1"
	"$phongexponent" "20"
	"$phongboost" "0.05"	
	"$phongfresnelranges"	"[.1 0.2 1]"
	"$halflambert" "1"


	"$rimlight" "1"										
	"$rimlightexponent" "20"							
	"$rimlightboost" "0.1"
	
}
