"LightmappedGeneric"
{
	"$basetexture" "models/LoneWolfiesCars/bently_PMcontinental/nodamage"
	"$blendtintbybasealpha" 1
                "$bumpmap" "models/LoneWolfiesCars/bently_PMcontinental/nodamage_bump"
	"$nodecal" "1"
	"$phong" 1
	"$phongexponent" 5
	"$phongtint" "[0.1 0.1 0.1]"
	"$phongboost"	2
	"$phongfresnelranges" "[1 1 1]"
	"$rimlight" 1
	"$rimlightboost" 0.5
	"$envmap" "env_cubemap"
	"$envmaptint" "[0.07 0.07 0.07]"
	"$normalmapalphaenvmapmask" 1
	"$phongfix" "{1 1 1}"
	"$nodecal" "1"

}