"VertexlitGeneric"
{
	"$basetexture" "models/LoneWolfiesCars/bently_PMcontinental/wheel"

"$bumpmap" "models/LoneWolfiesCars/shared/skin_nm"
	"$blendtintbybasealpha" 1
	"$halflambert" 1
	"$phong" "1" 
	"$phongboost" "3" 
	"$phongfresnelranges" "[.3 .5 1]" 
	"$phongexponent" 150
	"$rimlight" "1"
	"$rimlightexponent" "10"
	"$rimlightboost" ".1"
	"$rimmask" "1"
	"$envmap" "env_cubemap"
	"$envmaptint" "[0.05 0.05 0.05]"
	"$normalmapalphaenvmapmask" 1
	"$nocull" "1"
	"$nodecal" "1"
}